Lecture_07.JupyterHub.final.live
…
    #return the file name and data subset
    return(list(infection.data, infectionPlot, save.file))    
    
}

In [48]:

# Rerun our function without an infection date
save.facet.plot(embryos.df)

[[1]]
# A tibble: 3,643 x 19
   experiment     wormN~1 infec~2 wormS~3 spore~4 spore~5 spore~6 doseL~7 spores
   <chr>            <dbl> <fct>   <fct>   <fct>   <fct>     <dbl> <fct>   <lgl> 
 1 190426_VC2001~       1 190423  VC20019 LUAm1   0         0     Mock    FALSE 
 2 190426_VC2001~       1 190423  VC20019 LUAm1   10        0.354 Medium  FALSE 
 3 190426_VC2001~       1 190423  VC20019 LUAm1   20        0.708 High    FALSE 
 4 190426_N2_LUA~       1 190423  N2      LUAm1   0         0     Mock    FALSE 
 5 190426_N2_LUA~       1 190423  N2      LUAm1   10        0.354 Medium  FALSE 
 6 190426_N2_LUA~       1 190423  N2      LUAm1   20        0.708 High    FALSE 
 7 190426_AB1_LU~       1 190423  AB1     LUAm1   0         0     Mock    FALSE 
 8 190426_AB1_LU~       1 190423  AB1     LUAm1   10        0.354 Medium  FALSE 
 9 190426_AB1_LU~       1 190423  AB1     LUAm1   20        0.708 High    FALSE 
10 190426_JU397_~       1 190423  JU397   LUAm1   0         0     Mock    FALSE 
# ... with 3,633 more rows, 10 more variables: meronts <lgl>, embryos <dbl>,
#   expTimepoint <dbl>, infectionType <fct>, totalWorms <dbl>, plateSize <dbl>,
#   fixingDate <fct>, stainingDate <fct>, slideDate <fct>, imagingDate <fct>,
#   and abbreviated variable names 1: wormNumber, 2: infectionDate,
#   3: wormStrain, 4: sporeStrain, 5: sporeDose, 6: sporesM_cm2, 7: doseLevel
…
